A Tidy Physics Engine for Building and Visualizing Orbital Simulations • orbitr
…
Custom Visualization with ggplot2

plot_orbits() and plot_orbits_3d() are convenience functions for quick trajectory plots — they’re designed to get you a useful visualization in one line so you can focus on setting up the physics. But the real power of orbitr is that simulate() returns a standard tidy tibble. You can use ggplot2, plotly, or any other visualization tool directly on the output.

Here’s what the raw output looks like:

sim <- create_system() |>
  add_body("Earth", mass = mass_earth) |>
  add_body("Moon",  mass = mass_moon, x = distance_earth_moon, vy = speed_moon) |>
  simulate(time_step = 3600, duration = 86400 * 28)

sim

## # A tibble: 1,346 × 9
##    id       mass          x           y     z      vx          vy    vz  time
##    <chr>   <dbl>      <dbl>       <dbl> <dbl>   <dbl>       <dbl> <dbl> <dbl>
##  1 Earth 5.97e24         0         0        0   0        0            0     0
##  2 Moon  7.34e22 384400000         0        0   0     1022            0     0
##  3 Earth 5.97e24       215.        0        0   0.119    0.000571     0  3600
##  4 Moon  7.34e22 384382520.  3679200        0  -9.71  1022.           0  3600
##  5 Earth 5.97e24       860.        4.11     0   0.239    0.00229      0  7200
##  6 Moon  7.34e22 384330083.  7358065.       0 -19.4   1022.           0  7200
##  7 Earth 5.97e24      1934.       16.5      0   0.358    0.00514      0 10800
##  8 Moon  7.34e22 384242692. 11036262.       0 -29.1   1022.           0 10800
##  9 Earth 5.97e24      3438.       41.1      0   0.477    0.00914      0 14400
## 10 Moon  7.34e22 384120357. 14713454.       0 -38.8   1021.           0 14400
## # ℹ 1,336 more rows
…
